{
    "name": "Core",
    "references": [
        "GUID:75469ad4d38634e559750d17036d5f7c",
        "GUID:d8b63aba1907145bea998dd612889d6b",
        "GUID:84651a3751eca9349aac36a66bba901b",
        "GUID:9e24947de15b9834991c9d8411ea37cf"
    ],
    "includePlatforms": [],
    "excludePlatforms": [],
    "allowUnsafeCode": false,
    "overrideReferences": false,
    "precompiledReferences": [],
    "autoReferenced": true,
    "defineConstraints": [],
    "versionDefines": [
        {
            "name": "com.unity.mathematics",
            "expression": "1.1",
            "define": "MATHEMATICS"
        },
        {
            "name": "com.unity.inputsystem",
            "expression": "1.0.0-preview",
            "define": "NEW_INPUT_SYSTEM"
        },
        {
            "name": "com.unity.addressables",
            "expression": "1.3",
            "define": "ASYNC_OP"
        }
    ]
}